harp Dublin 2024 - Point Verifcation Workflow
…
fcst <- check_obs_against_fcst(fcst, T2m)

ℹ Using default `num_sd_allowed = 6` for `parameter = T2m`
! 0 cases with more than 6 std devs error.

If we make the check more strict to remove all cases where the observations are more than 1 standard deviation away from the forecast, we see that now 723 cases are removed. We can see the removed cases in the "removed_cases" attribute of the result.

fcst <- check_obs_against_fcst(fcst, T2m, num_sd_allowed = 1)

! 723 cases with more than 1 std dev error.
ℹ Removed cases can be seen in the "removed_cases" attribute.

attr(fcst, "removed_cases")

# A tibble: 723 × 5
     SID valid_dttm            T2m dist_to_fcst tolerance
   <int> <dttm>              <dbl>        <dbl>     <dbl>
 1  1001 2023-08-09 12:00:00  283.         2.94      1.21
 2  1001 2023-08-10 00:00:00  282.         1.54      1.09
 3  1001 2023-08-10 06:00:00  282.         1.20      1.20
 4  1001 2023-08-13 00:00:00  279.         2.89      1.09
 5  1001 2023-08-19 00:00:00  280.         1.17      1.09
 6  1001 2023-08-21 00:00:00  282.         1.55      1.09
 7  1001 2023-08-23 00:00:00  276.         2.33      1.09
 8  1001 2023-08-24 00:00:00  276.         1.30      1.09
 9  1001 2023-08-24 06:00:00  276.         1.66      1.20
10  1001 2023-08-30 18:00:00  280.         1.39      1.15
# ℹ 713 more rows
…
We are going to classify the temperature by having the left side of each range open and right side closed. This basically means that each range goes from >= the lower value to < the upper value. We do this by setting right = FALSE in the call to cut().

obs <- mutate(
  obs, 
  temp_range = cut(T2m, seq(5, 25, 2.5), right = FALSE)
)

obs

# A tibble: 23,756 × 8
   valid_dttm            SID   lon   lat  elev units   T2m temp_range
   <dttm>              <int> <dbl> <dbl> <dbl> <chr> <dbl> <fct>     
 1 2023-08-01 00:00:00  1001 -8.67  70.9    10 degC   6.75 [5,7.5)   
 2 2023-08-01 00:00:00  1010 16.1   69.3    13 degC  14.4  [12.5,15) 
 3 2023-08-01 00:00:00  1015 17.8   69.6    33 degC  18.6  [17.5,20) 
 4 2023-08-01 00:00:00  1023 18.5   69.1    77 degC  13.1  [12.5,15) 
 5 2023-08-01 00:00:00  1025 18.9   69.7     9 degC  13.0  [12.5,15) 
 6 2023-08-01 00:00:00  1026 18.9   69.7   115 degC  14.2  [12.5,15) 
 7 2023-08-01 00:00:00  1027 18.9   69.7    20 degC  13.0  [12.5,15) 
 8 2023-08-01 00:00:00  1028 19.0   74.5    16 degC   4.55 <NA>      
 9 2023-08-01 00:00:00  1033 19.5   70.2    24 degC  14.5  [12.5,15) 
10 2023-08-01 00:00:00  1035 20.1   69.6   710 degC  12.9  [12.5,15) 
# ℹ 23,746 more rows
…
