harp Dublin 2024 - Reading forecast data
…
Tip: vfld files need a lead_time argument

vfld files do not include enough metadata to get the lead time from the contents of the files. Therefore you need to give read_grid() the lead time in order to fully populate the output. You wouldn’t normally read vfld files directly with read_grid(), but would use read_forecast() instead.

read_grid(
  here("data/vfld/MEPS_preop/vfldMEPS_preopmbr000202402190003"), 
  "T2m", 
  lead_time = 3
) 

# A tibble: 2,083 × 9
     SID   lat   lon model_elevation parameter station_data members lead_time
   <int> <dbl> <dbl>           <dbl> <chr>            <dbl>   <dbl>     <dbl>
 1  1001  70.9 -8.67             9   T2m               273.      NA         3
 2  1010  69.3 16.1              4.7 T2m               275.      NA         3
 3  1014  69.2 17.9             46.4 T2m               272.      NA         3
 4  1015  69.6 17.8              0.6 T2m               274.      NA         3
 5  1018  69.2 16.0            153.  T2m               273.      NA         3
 6  1021  70.0 18.7             24.4 T2m               275.      NA         3
 7  1022  70.0 18.7             24.4 T2m               275.      NA         3
 8  1023  69.1 18.5             66.2 T2m               271.      NA         3
 9  1025  69.7 18.9              3.9 T2m               272.      NA         3
10  1026  69.7 18.9              1.3 T2m               272.      NA         3
# ℹ 2,073 more rows
# ℹ 1 more variable: units <chr>
…
Geographic transformations

read_forecast() and read_grid() have the ability to perform geographic transformations on the data at read time. These transformations include interpolating to point locations, regridding to another grid, taking a subset of a grid or pulling out a line section through a grid to create cross sections. Here we will concentrate on the interpolation to point locations, transformation = "interpolate"

Interpolation to geographic point locations

When selecting a transformation, there is an accompanying transformation_opts argument to pass the options for that transformation. Each transformation has a function that generates those options - in the case of the “interpolate” transformation, that is interpolate_opts(), which has a number of default options.

interpolate_opts()

No stations specified. Using default stations: 'station_list'

$stations
# A tibble: 13,417 × 5
     SID   lat   lon  elev name         
   <int> <dbl> <dbl> <dbl> <chr>        
 1  1001  70.9 -8.67   9.4 JAN MAYEN    
 2  1002  80.1 16.2    8   VERLEGENHUKEN
 3  1003  77   15.5   11.1 HORNSUND     
 4  1004  78.9 11.9    8   NY-ALESUND II
 5  1006  78.3 22.8   14   EDGEOYA      
 6  1007  78.9 11.9    7.7 NY-ALESUND   
 7  1008  78.2 15.5   26.8 SVALBARD AP  
 8  1009  80.7 25.0    5   KARL XII OYA 
 9  1010  69.3 16.1   13.1 ANDOYA       
10  1011  80.1 31.5   10   KVITOYA      
# ℹ 13,407 more rows
…
